{
  "name": "query+logevents",
  "mode": "list",
  "fieldname": "logevents",
  "prop": "leprop",
  "fields": [
    {
      "name": "logid",
      "type_": "u32",
      "prop": "ids"
    },
    {
      "name": "ns",
      "type_": "i32",
      "prop": "title"
    },
    {
      "name": "title",
      "type_": "String",
      "prop": "title"
    },
    {
      "name": "pageid",
      "type_": "u32",
      "prop": "ids"
    },
    {
      "name": "type",
      "type_": "String",
      "prop": "type",
      "rename": "type_"
    },
    {
      "name": "action",
      "type_": "String",
      "prop": "type"
    },
    {
      "name": "logpage",
      "type_": "u32",
      "prop": "ids"
    },
    {
      "name": "user",
      "type_": "String",
      "prop": "user"
    },
    {
      "name": "userid",
      "type_": "u32",
      "prop": "userid"
    },
    {
      "name": "timestamp",
      "type_": "timestamp",
      "prop": "timestamp"
    },
        {
      "name": "comment",
      "type_": "String",
      "prop": "comment"
    },
    {
      "name": "parsedcomment",
      "type_": "String",
      "prop": "parsedcomment"
    }
  ],
  "test_extra": {
    "assert": {},
    "params": {}
  }
}
